…
      -State,
      names_to = "age_year",
      values_to = "percent") |>
    separate(age_year, into=c("age","year"), sep = "\\(") |>
    mutate(
      year=str_replace(year,"\\)",""),
      percent=str_replace(percent,"[a-c]$",""),
      percent=as.numeric(percent)) |>
    filter(!(State %in% c("Total U.S.", "Northeast","Midwest", "South", "West")))
    data
}
nsduh_import(nsduh_html,table_num = 1)#用iteration运行函数3次, nsduh_import的作用就是从html中抽一张表,清理成人类可读的data,输出一个干净的tibble
```

    ## # A tibble: 510 × 4
    ##    State   age   year      percent
    ##    <chr>   <chr> <chr>       <dbl>
    ##  1 Alabama 12+   2013-2014    9.98
    ##  2 Alabama 12+   2014-2015    9.6 
    ##  3 Alabama 12-17 2013-2014    9.9 
    ##  4 Alabama 12-17 2014-2015    9.71
    ##  5 Alabama 18-25 2013-2014   27.0 
    ##  6 Alabama 18-25 2014-2015   26.1 
    ##  7 Alabama 26+   2013-2014    7.1 
    ##  8 Alabama 26+   2014-2015    6.81
    ##  9 Alabama 18+   2013-2014    9.99
    ## 10 Alabama 18+   2014-2015    9.59
    ## # ℹ 500 more rows

``` r
nsduh_import(nsduh_html,table_num = 2)
```

    ## # A tibble: 510 × 4
    ##    State   age   year      percent
    ##    <chr>   <chr> <chr>       <dbl>
    ##  1 Alabama 12+   2013-2014    5.57
    ##  2 Alabama 12+   2014-2015    5.35
    ##  3 Alabama 12-17 2013-2014    4.98
    ##  4 Alabama 12-17 2014-2015    5.16
    ##  5 Alabama 18-25 2013-2014   15.0 
    ##  6 Alabama 18-25 2014-2015   14.3 
    ##  7 Alabama 26+   2013-2014    4.03
    ##  8 Alabama 26+   2014-2015    3.86
    ##  9 Alabama 18+   2013-2014    5.63
    ## 10 Alabama 18+   2014-2015    5.37
    ## # ℹ 500 more rows

``` r
nsduh_import(nsduh_html,table_num =3)
```

    ## # A tibble: 510 × 4
    ##    State   age   year      percent
    ##    <chr>   <chr> <chr>       <dbl>
    ##  1 Alabama 12+   2013-2014    1.42
    ##  2 Alabama 12+   2014-2015    1.49
    ##  3 Alabama 12-17 2013-2014    4.46
    ##  4 Alabama 12-17 2014-2015    4.36
    ##  5 Alabama 18-25 2013-2014    6.04
    ##  6 Alabama 18-25 2014-2015    6.39
    ##  7 Alabama 26+   2013-2014    0.15
    ##  8 Alabama 26+   2014-2015    0.2 
    ##  9 Alabama 18+   2013-2014    0.95
    ## 10 Alabama 18+   2014-2015    1.05
    ## # ℹ 500 more rows
…
## for loop循环

``` r
output=vector("list", length=3)
for (i in 1:3) {
  output [[i]]=nsduh_import(html=nsduh_html,i)
}
output
```

    ## [[1]]
    ## # A tibble: 510 × 4
    ##    State   age   year      percent
    ##    <chr>   <chr> <chr>       <dbl>
    ##  1 Alabama 12+   2013-2014    9.98
    ##  2 Alabama 12+   2014-2015    9.6 
    ##  3 Alabama 12-17 2013-2014    9.9 
    ##  4 Alabama 12-17 2014-2015    9.71
    ##  5 Alabama 18-25 2013-2014   27.0 
    ##  6 Alabama 18-25 2014-2015   26.1 
    ##  7 Alabama 26+   2013-2014    7.1 
    ##  8 Alabama 26+   2014-2015    6.81
    ##  9 Alabama 18+   2013-2014    9.99
    ## 10 Alabama 18+   2014-2015    9.59
    ## # ℹ 500 more rows
    ## 
    ## [[2]]
    ## # A tibble: 510 × 4
    ##    State   age   year      percent
    ##    <chr>   <chr> <chr>       <dbl>
    ##  1 Alabama 12+   2013-2014    5.57
    ##  2 Alabama 12+   2014-2015    5.35
    ##  3 Alabama 12-17 2013-2014    4.98
    ##  4 Alabama 12-17 2014-2015    5.16
    ##  5 Alabama 18-25 2013-2014   15.0 
    ##  6 Alabama 18-25 2014-2015   14.3 
    ##  7 Alabama 26+   2013-2014    4.03
    ##  8 Alabama 26+   2014-2015    3.86
    ##  9 Alabama 18+   2013-2014    5.63
    ## 10 Alabama 18+   2014-2015    5.37
    ## # ℹ 500 more rows
    ## 
    ## [[3]]
    ## # A tibble: 510 × 4
    ##    State   age   year      percent
    ##    <chr>   <chr> <chr>       <dbl>
    ##  1 Alabama 12+   2013-2014    1.42
    ##  2 Alabama 12+   2014-2015    1.49
    ##  3 Alabama 12-17 2013-2014    4.46
    ##  4 Alabama 12-17 2014-2015    4.36
    ##  5 Alabama 18-25 2013-2014    6.04
    ##  6 Alabama 18-25 2014-2015    6.39
    ##  7 Alabama 26+   2013-2014    0.15
    ##  8 Alabama 26+   2014-2015    0.2 
    ##  9 Alabama 18+   2013-2014    0.95
    ## 10 Alabama 18+   2014-2015    1.05
    ## # ℹ 500 more rows

``` r
map(1:3, nsduh_import, html=nsduh_html)#遍历1、2、3, 第二个参数 table_num 传给 nsduh_import, 
```

    ## [[1]]
    ## # A tibble: 510 × 4
    ##    State   age   year      percent
    ##    <chr>   <chr> <chr>       <dbl>
    ##  1 Alabama 12+   2013-2014    9.98
    ##  2 Alabama 12+   2014-2015    9.6 
    ##  3 Alabama 12-17 2013-2014    9.9 
    ##  4 Alabama 12-17 2014-2015    9.71
    ##  5 Alabama 18-25 2013-2014   27.0 
    ##  6 Alabama 18-25 2014-2015   26.1 
    ##  7 Alabama 26+   2013-2014    7.1 
    ##  8 Alabama 26+   2014-2015    6.81
    ##  9 Alabama 18+   2013-2014    9.99
    ## 10 Alabama 18+   2014-2015    9.59
    ## # ℹ 500 more rows
    ## 
    ## [[2]]
    ## # A tibble: 510 × 4
    ##    State   age   year      percent
    ##    <chr>   <chr> <chr>       <dbl>
    ##  1 Alabama 12+   2013-2014    5.57
    ##  2 Alabama 12+   2014-2015    5.35
    ##  3 Alabama 12-17 2013-2014    4.98
    ##  4 Alabama 12-17 2014-2015    5.16
    ##  5 Alabama 18-25 2013-2014   15.0 
    ##  6 Alabama 18-25 2014-2015   14.3 
    ##  7 Alabama 26+   2013-2014    4.03
    ##  8 Alabama 26+   2014-2015    3.86
    ##  9 Alabama 18+   2013-2014    5.63
    ## 10 Alabama 18+   2014-2015    5.37
    ## # ℹ 500 more rows
    ## 
    ## [[3]]
    ## # A tibble: 510 × 4
    ##    State   age   year      percent
    ##    <chr>   <chr> <chr>       <dbl>
    ##  1 Alabama 12+   2013-2014    1.42
    ##  2 Alabama 12+   2014-2015    1.49
    ##  3 Alabama 12-17 2013-2014    4.46
    ##  4 Alabama 12-17 2014-2015    4.36
    ##  5 Alabama 18-25 2013-2014    6.04
    ##  6 Alabama 18-25 2014-2015    6.39
    ##  7 Alabama 26+   2013-2014    0.15
    ##  8 Alabama 26+   2014-2015    0.2 
    ##  9 Alabama 18+   2013-2014    0.95
    ## 10 Alabama 18+   2014-2015    1.05
    ## # ℹ 500 more rows
…
