…
simple linear regression模拟一份简单线性回归

``` r
sim_df=
  tibble(
    x=rnorm(30,mean=1,sd=1),#x~Normal(1,1)
    y=2+3*x+rnorm(30,0,1)
  )
sim_df
```

    ## # A tibble: 30 × 2
    ##          x     y
    ##      <dbl> <dbl>
    ##  1  0.531  2.09 
    ##  2  0.239  2.89 
    ##  3  2.52   9.39 
    ##  4 -0.0625 0.819
    ##  5  1.06   6.01 
    ##  6 -0.187  1.93 
    ##  7  1.32   6.20 
    ##  8  1.13   4.82 
    ##  9  1.23   5.38 
    ## 10 -0.138  1.81 
    ## # ℹ 20 more rows
…
## 用for-loop重复模拟500次

``` r
output=vector("list", length=500)

for (i in 1:500) {
  output[i]=sim_regression(n_subj=30)
}
output |>
  bind_rows()
```

    ## # A tibble: 500 × 1
    ##    `(Intercept)`
    ##            <dbl>
    ##  1          1.16
    ##  2          1.62
    ##  3          1.31
    ##  4          2.08
    ##  5          1.18
    ##  6          1.27
    ##  7          1.74
    ##  8          1.57
    ##  9          1.27
    ## 10          1.68
    ## # ℹ 490 more rows
…
